Lab3_Data.csv

Model,MSO4034B
Firmware Version,2.96
,
Waveform Type,ANALOG
Point Format,Y
Horizontal Units,s
Horizontal Scale,0.0002
Horizontal Delay,0.0001472
Sample Interval,2.00E-07
Record Length,10000
Gating,0.0% to 100.0%
Probe Attenuation,10
Vertical Units,V
Vertical Offset,0
Vertical Scale,0.5
Vertical Position,1.94
,
,
,
Label,
TIME,CH1
-8.53E-04,0.37
-8.53E-04,0.37
-8.52E-04,0.37
-8.52E-04,0.37
-8.52E-04,0.35
-8.52E-04,0.37
-8.52E-04,0.37
-8.51E-04,0.39
-8.51E-04,0.37
-8.51E-04,0.35
-8.51E-04,0.39
-8.51E-04,0.39
-8.50E-04,0.37
-8.50E-04,0.37
-8.50E-04,0.37
-8.50E-04,0.37
-8.50E-04,0.37
-8.49E-04,0.39
-8.49E-04,0.37
-8.49E-04,0.37
-8.49E-04,0.37
-8.49E-04,0.37
-8.48E-04,0.37
-8.48E-04,0.37
-8.48E-04,0.37
-8.48E-04,0.37
-8.48E-04,0.37
-8.47E-04,0.37
-8.47E-04,0.35
-8.47E-04,0.37
-8.47E-04,0.39
-8.47E-04,0.35
-8.46E-04,0.37
-8.46E-04,0.37
-8.46E-04,0.37
-8.46E-04,0.37
-8.46E-04,0.39
-8.45E-04,0.37
-8.45E-04,0.37
-8.45E-04,0.37
-8.45E-04,0.37
-8.45E-04,0.37
-8.44E-04,0.37
-8.44E-04,0.45
-8.44E-04,0.39
-8.44E-04,0.37
-8.44E-04,0.37
-8.43E-04,0.37
-8.43E-04,0.37
-8.43E-04,0.37
-8.43E-04,0.37
-8.43E-04,0.39
-8.42E-04,0.37
-8.42E-04,0.37
-8.42E-04,0.39
-8.42E-04,0.37
-8.42E-04,0.37
-8.41E-04,0.39
-8.41E-04,0.35
-8.41E-04,0.37
-8.41E-04,0.37
-8.41E-04,0.37
-8.40E-04,0.35
-8.40E-04,0.37
-8.40E-04,0.37
-8.40E-04,0.37
-8.40E-04,0.37
-8.39E-04,0.35
-8.39E-04,0.37
-8.39E-04,0.35
-8.39E-04,0.37
-8.39E-04,0.35
-8.38E-04,0.37
-8.38E-04,0.35
-8.38E-04,0.39
-8.38E-04,0.39
-8.38E-04,0.37
-8.37E-04,0.37
-8.37E-04,0.37
-8.37E-04,0.37
-8.37E-04,0.37
-8.37E-04,0.37
-8.36E-04,0.39
-8.36E-04,0.37
-8.36E-04,0.39
-8.36E-04,0.37
-8.36E-04,0.37
-8.35E-04,0.39
-8.35E-04,0.35
-8.35E-04,0.37
-8.35E-04,0.37
-8.35E-04,0.37
-8.34E-04,0.37
-8.34E-04,0.29
-8.34E-04,0.37
-8.34E-04,0.37
-8.34E-04,0.35
-8.33E-04,0.41
-8.33E-04,0.35
-8.33E-04,0.35
-8.33E-04,0.37
-8.33E-04,0.37
-8.32E-04,0.37
-8.32E-04,0.37
-8.32E-04,0.37
-8.32E-04,0.39
-8.32E-04,0.37
-8.31E-04,0.35
-8.31E-04,0.37
-8.31E-04,0.37
-8.31E-04,0.37
-8.31E-04,0.35
-8.30E-04,0.37
-8.30E-04,0.37
-8.30E-04,0.37
-8.30E-04,0.35
-8.30E-04,0.39
-8.29E-04,0.37
-8.29E-04,0.37
-8.29E-04,0.37
-8.29E-04,0.37
-8.29E-04,0.39
-8.28E-04,0.37
-8.28E-04,0.37
-8.28E-04,0.35
-8.28E-04,0.37
-8.28E-04,0.37
-8.27E-04,0.35
-8.27E-04,0.37
-8.27E-04,0.35
-8.27E-04,0.37
-8.27E-04,0.37
-8.26E-04,0.37
-8.26E-04,0.35
-8.26E-04,0.35
-8.26E-04,0.39
-8.26E-04,0.37
-8.25E-04,0.37
-8.25E-04,0.37
-8.25E-04,0.37
-8.25E-04,0.37
-8.25E-04,0.37
-8.24E-04,0.37
-8.24E-04,0.39
-8.24E-04,0.35
-8.24E-04,0.37
-8.24E-04,0.37
-8.23E-04,0.37
-8.23E-04,0.37
-8.23E-04,0.35
-8.23E-04,0.39
-8.23E-04,0.37
-8.22E-04,0.39
-8.22E-04,0.37
-8.22E-04,0.39
-8.22E-04,0.39
-8.22E-04,0.39
-8.21E-04,0.37
-8.21E-04,0.39
-8.21E-04,0.37
-8.21E-04,0.37
-8.21E-04,0.39
-8.20E-04,0.35
-8.20E-04,0.37
-8.20E-04,0.37
-8.20E-04,0.35
-8.20E-04,0.37
-8.19E-04,0.35
-8.19E-04,0.39
-8.19E-04,0.35
-8.19E-04,0.37
-8.19E-04,0.37
-8.18E-04,0.37
-8.18E-04,0.35
-8.18E-04,0.35
-8.18E-04,0.37
-8.18E-04,0.37
-8.17E-04,0.37
-8.17E-04,0.35
-8.17E-04,0.37
-8.17E-04,0.39
-8.17E-04,0.37
-8.16E-04,0.37
-8.16E-04,0.39
-8.16E-04,0.37
-8.16E-04,0.37
-8.16E-04,0.37
-8.15E-04,0.37
-8.15E-04,0.37
-8.15E-04,0.37
-8.15E-04,0.37
-8.15E-04,0.37
-8.14E-04,0.35
-8.14E-04,0.37
-8.14E-04,0.37
-8.14E-04,0.39
-8.14E-04,0.39
-8.13E-04,0.39
-8.13E-04,0.37
-8.13E-04,0.37
-8.13E-04,0.37
-8.13E-04,0.37
-8.12E-04,0.37
-8.12E-04,0.37
-8.12E-04,0.39
-8.12E-04,0.37
-8.12E-04,0.37
-8.11E-04,0.35
-8.11E-04,0.37
-8.11E-04,0.37
-8.11E-04,0.37
-8.11E-04,0.37
-8.10E-04,0.41
-8.10E-04,0.37
-8.10E-04,0.39
-8.10E-04,0.37
-8.10E-04,0.35
-8.09E-04,0.35
-8.09E-04,0.37
-8.09E-04,0.37
-8.09E-04,0.35
-8.09E-04,0.37
-8.08E-04,0.37
-8.08E-04,0.37
-8.08E-04,0.39
-8.08E-04,0.39
-8.08E-04,0.37
-8.07E-04,0.37
-8.07E-04,0.37
-8.07E-04,0.37
-8.07E-04,0.37
-8.07E-04,0.37
-8.06E-04,0.37
-8.06E-04,0.37
-8.06E-04,0.37
-8.06E-04,0.39
-8.06E-04,0.39
-8.05E-04,0.39
-8.05E-04,0.37
-8.05E-04,0.37
-8.05E-04,0.39
-8.05E-04,0.35
-8.04E-04,0.39
-8.04E-04,0.37
-8.04E-04,0.37
-8.04E-04,0.37
-8.04E-04,0.37
-8.03E-04,0.37
-8.03E-04,0.39
-8.03E-04,0.37
-8.03E-04,0.37
-8.03E-04,0.37
-8.02E-04,0.35
-8.02E-04,0.41
-8.02E-04,0.37
-8.02E-04,0.37
-8.02E-04,0.37
-8.01E-04,0.37
-8.01E-04,0.37
-8.01E-04,0.37
-8.01E-04,0.41
-8.01E-04,0.37
-8.00E-04,0.37
-8.00E-04,0.39
-8.00E-04,0.35
-8.00E-04,0.39
-8.00E-04,0.37
-7.99E-04,0.37
-7.99E-04,0.37
-7.99E-04,0.37
-7.99E-04,0.35
-7.99E-04,0.37
-7.98E-04,0.35
-7.98E-04,0.37
-7.98E-04,0.39
-7.98E-04,0.37
-7.98E-04,0.35
-7.97E-04,0.37
-7.97E-04,0.37
-7.97E-04,0.39
-7.97E-04,0.37
-7.97E-04,0.37
-7.96E-04,0.37
-7.96E-04,0.39
-7.96E-04,0.37
-7.96E-04,0.35
-7.96E-04,0.39
-7.95E-04,0.37
-7.95E-04,0.37
-7.95E-04,0.37
-7.95E-04,0.37
-7.95E-04,0.37
-7.94E-04,0.37
-7.94E-04,0.41
-7.94E-04,0.37
-7.94E-04,0.37
-7.94E-04,0.37
-7.93E-04,0.37
-7.93E-04,0.37
-7.93E-04,0.39
-7.93E-04,0.37
-7.93E-04,0.39
-7.92E-04,0.37
-7.92E-04,0.37
-7.92E-04,0.39
-7.92E-04,0.37
-7.92E-04,0.37
-7.91E-04,0.37
-7.91E-04,0.37
-7.91E-04,0.37
-7.91E-04,0.35
-7.91E-04,0.37
-7.90E-04,0.39
-7.90E-04,0.37
-7.90E-04,0.37
-7.90E-04,0.35
-7.90E-04,0.37
-7.89E-04,0.35
-7.89E-04,0.37
-7.89E-04,0.37
-7.89E-04,0.37
-7.89E-04,0.37
-7.88E-04,0.37
-7.88E-04,0.37
-7.88E-04,0.37
-7.88E-04,0.35
-7.88E-04,0.37
-7.87E-04,0.39
-7.87E-04,0.37
-7.87E-04,0.37
-7.87E-04,0.37
-7.87E-04,0.37
-7.86E-04,0.37
-7.86E-04,0.39
-7.86E-04,0.37
-7.86E-04,0.37
-7.86E-04,0.37
-7.85E-04,0.39
-7.85E-04,0.37
-7.85E-04,0.37
-7.85E-04,0.37
-7.85E-04,0.35
-7.84E-04,0.37
-7.84E-04,0.23
-7.84E-04,0.39
-7.84E-04,0.35
-7.84E-04,0.39
-7.83E-04,0.35
-7.83E-04,0.37
-7.83E-04,0.37
-7.83E-04,0.39
-7.83E-04,0.37
-7.82E-04,0.37
-7.82E-04,0.37
-7.82E-04,0.39
-7.82E-04,0.35
-7.82E-04,0.37
-7.81E-04,0.37
-7.81E-04,0.37
-7.81E-04,0.39
-7.81E-04,0.37
-7.81E-04,0.35
-7.80E-04,0.37
-7.80E-04,0.35
-7.80E-04,0.39
-7.80E-04,0.37
-7.80E-04,0.37
-7.79E-04,0.37
-7.79E-04,0.37
-7.79E-04,0.37
-7.79E-04,0.37
-7.79E-04,0.37
-7.78E-04,0.37
-7.78E-04,0.37
-7.78E-04,0.39
-7.78E-04,0.39
-7.78E-04,0.37
-7.77E-04,0.37
-7.77E-04,0.39
-7.77E-04,0.39
-7.77E-04,0.37
-7.77E-04,0.37
-7.76E-04,0.37
-7.76E-04,0.35
-7.76E-04,0.37
-7.76E-04,0.37
-7.76E-04,0.37
-7.75E-04,0.37
-7.75E-04,0.35
-7.75E-04,0.39
-7.75E-04,0.37
-7.75E-04,0.37
-7.74E-04,0.37
-7.74E-04,0.35
-7.74E-04,0.37
-7.74E-04,0.37
-7.74E-04,0.37
-7.73E-04,0.37
-7.73E-04,0.37
-7.73E-04,0.39
-7.73E-04,0.35
-7.73E-04,0.37
-7.72E-04,0.39
-7.72E-04,0.37
-7.72E-04,0.39
-7.72E-04,0.37
-7.72E-04,0.39
-7.71E-04,0.37
-7.71E-04,0.37
-7.71E-04,0.37
-7.71E-04,0.37
-7.71E-04,0.37
-7.70E-04,0.37
-7.70E-04,0.39
-7.70E-04,0.37
-7.70E-04,0.39
-7.70E-04,0.37
-7.69E-04,0.37
-7.69E-04,0.39
-7.69E-04,0.37
-7.69E-04,0.37
-7.69E-04,0.37
-7.68E-04,0.39
-7.68E-04,0.37
-7.68E-04,0.35
-7.68E-04,0.37
-7.68E-04,0.37
-7.67E-04,0.37
-7.67E-04,0.37
-7.67E-04,0.59
-7.67E-04,0.37
-7.67E-04,0.37
-7.66E-04,0.37
-7.66E-04,0.37
-7.66E-04,0.37
-7.66E-04,0.37
-7.66E-04,0.37
-7.65E-04,0.39
-7.65E-04,0.37
-7.65E-04,0.37
-7.65E-04,0.37
-7.65E-04,0.37
-7.64E-04,0.37
-7.64E-04,0.37
-7.64E-04,0.37
-7.64E-04,0.37
-7.64E-04,0.37
-7.63E-04,0.39
-7.63E-04,0.37
-7.63E-04,0.37
-7.63E-04,0.37
-7.63E-04,0.35
-7.62E-04,0.35
-7.62E-04,0.37
-7.62E-04,0.37
-7.62E-04,0.37
-7.62E-04,0.35
-7.61E-04,0.37
-7.61E-04,0.37
-7.61E-04,0.37
-7.61E-04,0.35
-7.61E-04,0.37
-7.60E-04,0.37
-7.60E-04,0.39
-7.60E-04,0.35
-7.60E-04,0.35
-7.60E-04,0.37
-7.59E-04,0.37
-7.59E-04,0.37
-7.59E-04,0.39
-7.59E-04,0.37
-7.59E-04,0.39
-7.58E-04,0.37
-7.58E-04,0.37
-7.58E-04,0.39
-7.58E-04,0.37
-7.58E-04,0.37
-7.57E-04,0.39
-7.57E-04,0.39
-7.57E-04,0.37
-7.57E-04,0.37
-7.57E-04,0.39
-7.56E-04,0.37
-7.56E-04,0.39
-7.56E-04,0.37
-7.56E-04,0.37
-7.56E-04,0.37
-7.55E-04,0.37
-7.55E-04,0.37
-7.55E-04,0.37
-7.55E-04,0.39
-7.55E-04,0.39
-7.54E-04,0.37
-7.54E-04,0.37
-7.54E-04,0.37
-7.54E-04,0.37
-7.54E-04,0.37
-7.53E-04,0.39
-7.53E-04,0.37
-7.53E-04,0.37
-7.53E-04,0.37
-7.53E-04,0.35
-7.52E-04,0.35
-7.52E-04,0.37
-7.52E-04,0.37
-7.52E-04,0.39
-7.52E-04,0.37
-7.51E-04,0.37
-7.51E-04,0.35
-7.51E-04,0.37
-7.51E-04,0.37
-7.51E-04,0.37
-7.50E-04,0.39
-7.50E-04,0.37
-7.50E-04,0.37
-7.50E-04,0.37
-7.50E-04,0.37
-7.49E-04,0.39
-7.49E-04,0.39
-7.49E-04,0.35
-7.49E-04,0.37
-7.49E-04,0.39
-7.48E-04,0.37
-7.48E-04,0.37
-7.48E-04,0.37
-7.48E-04,0.37
-7.48E-04,0.37
-7.47E-04,0.37
-7.47E-04,0.41
-7.47E-04,0.39
-7.47E-04,0.39
-7.47E-04,0.39
-7.46E-04,0.35
-7.46E-04,0.35
-7.46E-04,0.37
-7.46E-04,0.39
-7.46E-04,0.37
-7.45E-04,0.37
-7.45E-04,0.37
-7.45E-04,0.37
-7.45E-04,0.37
-7.45E-04,0.37
-7.44E-04,0.37
-7.44E-04,0.31
-7.44E-04,0.35
-7.44E-04,0.37
-7.44E-04,0.37
-7.43E-04,0.37
-7.43E-04,0.37
-7.43E-04,0.35
-7.43E-04,0.37
-7.43E-04,0.37
-7.42E-04,0.35
-7.42E-04,0.37
-7.42E-04,0.37
-7.42E-04,0.37
-7.42E-04,0.39
-7.41E-04,0.39
-7.41E-04,0.39
-7.41E-04,0.37
-7.41E-04,0.37
-7.41E-04,0.37
-7.40E-04,0.37
-7.40E-04,0.39
-7.40E-04,0.39
-7.40E-04,0.37
-7.40E-04,0.37
-7.39E-04,0.37
-7.39E-04,0.39
-7.39E-04,0.37
-7.39E-04,0.39
-7.39E-04,0.35
-7.38E-04,0.37
-7.38E-04,0.39
-7.38E-04,0.37
-7.38E-04,0.37
-7.38E-04,0.35
-7.37E-04,0.37
-7.37E-04,0.37
-7.37E-04,0.39
-7.37E-04,0.35
-7.37E-04,0.37
-7.36E-04,0.35
-7.36E-04,0.37
-7.36E-04,0.37
-7.36E-04,0.37
-7.36E-04,0.39
-7.35E-04,0.35
-7.35E-04,0.39
-7.35E-04,0.37
-7.35E-04,0.35
-7.35E-04,0.35
-7.34E-04,0.37
-7.34E-04,0.37
-7.34E-04,0.37
-7.34E-04,0.35
-7.34E-04,0.35
-7.33E-04,0.35
-7.33E-04,0.37
-7.33E-04,0.37
-7.33E-04,0.37
-7.33E-04,0.37
-7.32E-04,0.35
-7.32E-04,0.37
-7.32E-04,0.39
-7.32E-04,0.37
-7.32E-04,0.37
-7.31E-04,0.37
-7.31E-04,0.37
-7.31E-04,0.37
-7.31E-04,0.37
-7.31E-04,0.37
-7.30E-04,0.37
-7.30E-04,0.39
-7.30E-04,0.37
-7.30E-04,0.37
-7.30E-04,0.37
-7.29E-04,0.35
-7.29E-04,0.37
-7.29E-04,0.35
-7.29E-04,0.37
-7.29E-04,0.37
-7.28E-04,0.37
-7.28E-04,0.39
-7.28E-04,0.39
-7.28E-04,0.37
-7.28E-04,0.39
-7.27E-04,0.39
-7.27E-04,0.37
-7.27E-04,0.39
-7.27E-04,0.37
-7.27E-04,0.37
-7.26E-04,0.39
-7.26E-04,0.37
-7.26E-04,0.39
-7.26E-04,0.37
-7.26E-04,0.37
-7.25E-04,0.39
-7.25E-04,0.37
-7.25E-04,0.35
-7.25E-04,0.37
-7.25E-04,0.37
-7.24E-04,0.37
-7.24E-04,0.39
-7.24E-04,0.37
-7.24E-04,0.35
-7.24E-04,0.37
-7.23E-04,0.37
-7.23E-04,0.37
-7.23E-04,0.37
-7.23E-04,0.37
-7.23E-04,0.37
-7.22E-04,0.39
-7.22E-04,0.37
-7.22E-04,0.37
-7.22E-04,0.37
-7.22E-04,0.35
-7.21E-04,0.37
-7.21E-04,0.41
-7.21E-04,0.37
-7.21E-04,0.37
-7.21E-04,0.37
-7.20E-04,0.39
-7.20E-04,0.37
-7.20E-04,0.39
-7.20E-04,0.39
-7.20E-04,0.37
-7.19E-04,0.37
-7.19E-04,0.37
-7.19E-04,0.37
-7.19E-04,0.35
-7.19E-04,0.39
-7.18E-04,0.39
-7.18E-04,0.37
-7.18E-04,0.37
-7.18E-04,0.37
-7.18E-04,0.37
-7.17E-04,0.37
-7.17E-04,0.39
-7.17E-04,0.51
-7.17E-04,0.35
-7.17E-04,0.37
-7.16E-04,0.35
-7.16E-04,0.35
-7.16E-04,0.37
-7.16E-04,0.37
-7.16E-04,0.37
-7.15E-04,0.39
-7.15E-04,0.37
-7.15E-04,0.39
-7.15E-04,0.37
-7.15E-04,0.37
-7.14E-04,0.39
-7.14E-04,0.37
-7.14E-04,0.37
-7.14E-04,0.39
-7.14E-04,0.37
-7.13E-04,0.37
-7.13E-04,0.37
-7.13E-04,0.37
-7.13E-04,0.39
-7.13E-04,0.37
-7.12E-04,0.37
-7.12E-04,0.37
-7.12E-04,0.37
-7.12E-04,0.37
-7.12E-04,0.37
-7.11E-04,0.39
-7.11E-04,0.37
-7.11E-04,0.37
-7.11E-04,0.35
-7.11E-04,0.37
-7.10E-04,0.37
-7.10E-04,0.37
-7.10E-04,0.37
-7.10E-04,0.37
-7.10E-04,0.39
-7.09E-04,0.37
-7.09E-04,0.37
-7.09E-04,0.37
-7.09E-04,0.35
-7.09E-04,0.39
-7.08E-04,0.37
-7.08E-04,0.37
-7.08E-04,0.39
-7.08E-04,0.37
-7.08E-04,0.39
-7.07E-04,0.37
-7.07E-04,0.37
-7.07E-04,0.39
-7.07E-04,0.39
-7.07E-04,0.39
-7.06E-04,0.37
-7.06E-04,0.37
-7.06E-04,0.39
-7.06E-04,0.37
-7.06E-04,0.37
-7.05E-04,0.37
-7.05E-04,0.37
-7.05E-04,0.41
-7.05E-04,0.37
-7.05E-04,0.39
-7.04E-04,0.35
-7.04E-04,0.35
-7.04E-04,0.37
-7.04E-04,0.37
-7.04E-04,0.39
-7.03E-04,0.37
-7.03E-04,0.37
-7.03E-04,0.39
-7.03E-04,0.39
-7.03E-04,0.37
-7.02E-04,0.37
-7.02E-04,0.37
-7.02E-04,0.37
-7.02E-04,0.37
-7.02E-04,0.37
-7.01E-04,0.37
-7.01E-04,0.37
-7.01E-04,0.37
-7.01E-04,0.43
-7.01E-04,0.35
-7.00E-04,0.37
-7.00E-04,0.39
-7.00E-04,0.37
-7.00E-04,0.35
-7.00E-04,0.39
-6.99E-04,0.37
-6.99E-04,0.37
-6.99E-04,0.41
-6.99E-04,0.37
-6.99E-04,0.37
-6.98E-04,0.35
-6.98E-04,0.37
-6.98E-04,0.39
-6.98E-04,0.39
-6.98E-04,0.39
-6.97E-04,0.37
-6.97E-04,0.37
-6.97E-04,0.37
-6.97E-04,0.37
-6.97E-04,0.37
-6.96E-04,0.39
-6.96E-04,0.39
-6.96E-04,0.37
-6.96E-04,0.37
-6.96E-04,0.37
-6.95E-04,0.37
-6.95E-04,0.39
-6.95E-04,0.37
-6.95E-04,0.37
-6.95E-04,0.37
-6.94E-04,0.37
-6.94E-04,0.39
-6.94E-04,0.37
-6.94E-04,0.37
-6.94E-04,0.39
-6.93E-04,0.37
-6.93E-04,0.39
-6.93E-04,0.37
-6.93E-04,0.37
-6.93E-04,0.37
-6.92E-04,0.35
-6.92E-04,0.37
-6.92E-04,0.39
-6.92E-04,0.37
-6.92E-04,0.37
-6.91E-04,0.37
-6.91E-04,0.37
-6.91E-04,0.37
-6.91E-04,0.35
-6.91E-04,0.35
-6.90E-04,0.39
-6.90E-04,0.37
-6.90E-04,0.39
-6.90E-04,0.37
-6.90E-04,0.37
-6.89E-04,0.37
-6.89E-04,0.37
-6.89E-04,0.37
-6.89E-04,0.35
-6.89E-04,0.37
-6.88E-04,0.37
-6.88E-04,0.37
-6.88E-04,0.39
-6.88E-04,0.39
-6.88E-04,0.37
-6.87E-04,0.37
-6.87E-04,0.37
-6.87E-04,0.37
-6.87E-04,0.37
-6.87E-04,0.35
-6.86E-04,0.37
-6.86E-04,0.35
-6.86E-04,0.37
-6.86E-04,0.41
-6.86E-04,0.39
-6.85E-04,0.35
-6.85E-04,0.35
-6.85E-04,0.39
-6.85E-04,0.39
-6.85E-04,0.39
-6.84E-04,0.37
-6.84E-04,0.37
-6.84E-04,0.37
-6.84E-04,0.37
-6.84E-04,0.41
-6.83E-04,0.37
-6.83E-04,0.39
-6.83E-04,0.37
-6.83E-04,0.39
-6.83E-04,0.37
-6.82E-04,0.37
-6.82E-04,0.39
-6.82E-04,0.37
-6.82E-04,0.37
-6.82E-04,0.37
-6.81E-04,0.35
-6.81E-04,0.35
-6.81E-04,0.37
-6.81E-04,0.37
-6.81E-04,0.37
-6.80E-04,0.39
-6.80E-04,0.37
-6.80E-04,0.37
-6.80E-04,0.39
-6.80E-04,0.39
-6.79E-04,0.41
-6.79E-04,0.37
-6.79E-04,0.37
-6.79E-04,0.37
-6.79E-04,0.37
-6.78E-04,0.37
-6.78E-04,0.37
-6.78E-04,0.39
-6.78E-04,0.37
-6.78E-04,0.37
-6.77E-04,0.37
-6.77E-04,0.39
-6.77E-04,0.39
-6.77E-04,0.37
-6.77E-04,0.39
-6.76E-04,0.37
-6.76E-04,0.37
-6.76E-04,0.37
-6.76E-04,0.37
-6.76E-04,0.37
-6.75E-04,0.37
-6.75E-04,0.37
-6.75E-04,0.37
-6.75E-04,0.37
-6.75E-04,0.37
-6.74E-04,0.37
-6.74E-04,0.35
-6.74E-04,0.37
-6.74E-04,0.37
-6.74E-04,0.35
-6.73E-04,0.35
-6.73E-04,0.39
-6.73E-04,0.39
-6.73E-04,0.35
-6.73E-04,0.37
-6.72E-04,0.35
-6.72E-04,0.35
-6.72E-04,0.37
-6.72E-04,0.37
-6.72E-04,0.37
-6.71E-04,0.39
-6.71E-04,0.37
-6.71E-04,0.35
-6.71E-04,0.37
-6.71E-04,0.37
-6.70E-04,0.37
-6.70E-04,0.37
-6.70E-04,0.37
-6.70E-04,0.39
-6.70E-04,0.37
-6.69E-04,0.37
-6.69E-04,0.37
-6.69E-04,0.37
-6.69E-04,0.39
-6.69E-04,0.37
-6.68E-04,0.37
-6.68E-04,0.37
-6.68E-04,0.39
-6.68E-04,0.37
-6.68E-04,0.37
-6.67E-04,0.35
-6.67E-04,0.41
-6.67E-04,0.25
-6.67E-04,0.37
-6.67E-04,0.39
-6.66E-04,0.39
-6.66E-04,0.39
-6.66E-04,0.37
-6.66E-04,0.37
-6.66E-04,0.37
-6.65E-04,0.41
-6.65E-04,0.37
-6.65E-04,0.37
-6.65E-04,0.39
-6.65E-04,0.39
-6.64E-04,0.39
-6.64E-04,0.37
-6.64E-04,0.37
-6.64E-04,0.39
-6.64E-04,0.37
-6.63E-04,0.39
-6.63E-04,0.37
-6.63E-04,0.37
-6.63E-04,0.37
-6.63E-04,0.37
-6.62E-04,0.37
-6.62E-04,0.41
-6.62E-04,0.37
-6.62E-04,0.37
-6.62E-04,0.39
-6.61E-04,0.39
-6.61E-04,0.37
-6.61E-04,0.37
-6.61E-04,0.33
-6.61E-04,0.39
-6.60E-04,0.39
-6.60E-04,0.37
-6.60E-04,0.37
-6.60E-04,0.37
-6.60E-04,0.39
-6.59E-04,0.37
-6.59E-04,0.37
-6.59E-04,0.37
-6.59E-04,0.37
-6.59E-04,0.35
-6.58E-04,0.37
-6.58E-04,0.37
-6.58E-04,0.37
-6.58E-04,0.35
-6.58E-04,0.39
-6.57E-04,0.37
-6.57E-04,0.37
-6.57E-04,0.37
-6.57E-04,0.37
-6.57E-04,0.37
-6.56E-04,0.37
-6.56E-04,0.37
-6.56E-04,0.37
-6.56E-04,0.37
-6.56E-04,0.37
-6.55E-04,0.37
-6.55E-04,0.37
-6.55E-04,0.37
-6.55E-04,0.37
-6.55E-04,0.37
-6.54E-04,0.39
-6.54E-04,0.37
-6.54E-04,0.39
-6.54E-04,0.37
-6.54E-04,0.37
-6.53E-04,0.39
-6.53E-04,0.39
-6.53E-04,0.37
-6.53E-04,0.37
-6.53E-04,0.37
-6.52E-04,0.37
-6.52E-04,0.37
-6.52E-04,0.37
-6.52E-04,0.37
-6.52E-04,0.37
-6.51E-04,0.37
-6.51E-04,0.37
-6.51E-04,0.37
-6.51E-04,0.35
-6.51E-04,0.33
-6.50E-04,0.37
-6.50E-04,0.37
-6.50E-04,0.39
-6.50E-04,0.35
-6.50E-04,0.37
-6.49E-04,0.37
-6.49E-04,0.37
-6.49E-04,0.37
-6.49E-04,0.37
-6.49E-04,0.37
-6.48E-04,0.37
-6.48E-04,0.37
-6.48E-04,0.35
-6.48E-04,0.37
-6.48E-04,0.37
-6.47E-04,0.37
-6.47E-04,0.37
-6.47E-04,0.37
-6.47E-04,0.37
-6.47E-04,0.37
-6.46E-04,0.39
-6.46E-04,0.37
-6.46E-04,0.37
-6.46E-04,0.37
-6.46E-04,0.35
-6.45E-04,0.37
-6.45E-04,0.35
-6.45E-04,0.39
-6.45E-04,0.37
-6.45E-04,0.37
-6.44E-04,0.37
-6.44E-04,0.37
-6.44E-04,0.37
-6.44E-04,0.37
-6.44E-04,0.35
-6.43E-04,0.39
-6.43E-04,0.37
-6.43E-04,0.37
-6.43E-04,0.37
-6.43E-04,0.37
-6.42E-04,0.41
-6.42E-04,0.35
-6.42E-04,0.39
-6.42E-04,0.37
-6.42E-04,0.37
-6.41E-04,0.37
-6.41E-04,0.37
-6.41E-04,0.37
-6.41E-04,0.37
-6.41E-04,0.37
-6.40E-04,0.37
-6.40E-04,0.37
-6.40E-04,0.39
-6.40E-04,0.41
-6.40E-04,0.35
-6.39E-04,0.35
-6.39E-04,0.35
-6.39E-04,0.37
-6.39E-04,0.39
-6.39E-04,0.37
-6.38E-04,0.37
-6.38E-04,0.37
-6.38E-04,0.37
-6.38E-04,0.39
-6.38E-04,0.37
-6.37E-04,0.37
-6.37E-04,0.37
-6.37E-04,0.39
-6.37E-04,0.35
-6.37E-04,0.37
-6.36E-04,0.37
-6.36E-04,0.37
-6.36E-04,0.37
-6.36E-04,0.37
-6.36E-04,0.39
-6.35E-04,0.37
-6.35E-04,0.39
-6.35E-04,0.35
-6.35E-04,0.37
-6.35E-04,0.37
-6.34E-04,0.39
-6.34E-04,0.35
-6.34E-04,0.37
-6.34E-04,0.37
-6.34E-04,0.35
-6.33E-04,0.37
-6.33E-04,0.37
-6.33E-04,0.37
-6.33E-04,0.39
-6.33E-04,0.37
-6.32E-04,0.37
-6.32E-04,0.37
-6.32E-04,0.39
-6.32E-04,0.37
-6.32E-04,0.39
-6.31E-04,0.35
-6.31E-04,0.37
-6.31E-04,0.37
-6.31E-04,0.41
-6.31E-04,0.37
-6.30E-04,0.37
-6.30E-04,0.37
-6.30E-04,0.37
-6.30E-04,0.37
-6.30E-04,0.37
-6.29E-04,0.37
-6.29E-04,0.35
-6.29E-04,0.37
-6.29E-04,0.37
-6.29E-04,0.35
-6.28E-04,0.37
-6.28E-04,0.39
-6.28E-04,0.37
-6.28E-04,0.37
-6.28E-04,0.39
-6.27E-04,0.39
-6.27E-04,0.37
-6.27E-04,0.39
-6.27E-04,0.37
-6.27E-04,0.39
-6.26E-04,0.37
-6.26E-04,0.39
-6.26E-04,0.37
-6.26E-04,0.39
-6.26E-04,0.37
-6.25E-04,0.35
-6.25E-04,0.37
-6.25E-04,0.37
-6.25E-04,0.37
-6.25E-04,0.37
-6.24E-04,0.37
-6.24E-04,0.35
-6.24E-04,0.37
-6.24E-04,0.39
-6.24E-04,0.39
-6.23E-04,0.37
-6.23E-04,0.37
-6.23E-04,0.37
-6.23E-04,0.37
-6.23E-04,0.35
-6.22E-04,0.37
-6.22E-04,0.37
-6.22E-04,0.35
-6.22E-04,0.37
-6.22E-04,0.37
-6.21E-04,0.37
-6.21E-04,0.37
-6.21E-04,0.39
-6.21E-04,0.37
-6.21E-04,0.37
-6.20E-04,0.37
-6.20E-04,0.37
-6.20E-04,0.39
-6.20E-04,0.39
-6.20E-04,0.37
-6.19E-04,0.37
-6.19E-04,0.35
-6.19E-04,0.39
-6.19E-04,0.37
-6.19E-04,0.37
-6.18E-04,0.37
-6.18E-04,0.35
-6.18E-04,0.37
-6.18E-04,0.37
-6.18E-04,0.35
-6.17E-04,0.39
-6.17E-04,0.37
-6.17E-04,0.31
-6.17E-04,0.37
-6.17E-04,0.37
-6.16E-04,0.37
-6.16E-04,0.39
-6.16E-04,0.37
-6.16E-04,0.39
-6.16E-04,0.37
-6.15E-04,0.37
-6.15E-04,0.37
-6.15E-04,0.39
-6.15E-04,0.37
-6.15E-04,0.37
-6.14E-04,0.37
-6.14E-04,0.37
-6.14E-04,0.37
-6.14E-04,0.37
-6.14E-04,0.37
-6.13E-04,0.37
-6.13E-04,0.37
-6.13E-04,0.39
-6.13E-04,0.39
-6.13E-04,0.37
-6.12E-04,0.35
-6.12E-04,0.39
-6.12E-04,0.37
-6.12E-04,0.37
-6.12E-04,0.37
-6.11E-04,0.37
-6.11E-04,0.37
-6.11E-04,0.39
-6.11E-04,0.35
-6.11E-04,0.41
-6.10E-04,0.39
-6.10E-04,0.39
-6.10E-04,0.39
-6.10E-04,0.37
-6.10E-04,0.35
-6.09E-04,0.37
-6.09E-04,0.37
-6.09E-04,0.37
-6.09E-04,0.35
-6.09E-04,0.39
-6.08E-04,0.37
-6.08E-04,0.39
-6.08E-04,0.39
-6.08E-04,0.37
-6.08E-04,0.37
-6.07E-04,0.37
-6.07E-04,0.37
-6.07E-04,0.37
-6.07E-04,0.37
-6.07E-04,0.37
-6.06E-04,0.37
-6.06E-04,0.37
-6.06E-04,0.39
-6.06E-04,0.37
-6.06E-04,0.37
-6.05E-04,0.39
-6.05E-04,0.39
-6.05E-04,0.37
-6.05E-04,0.39
-6.05E-04,0.37
-6.04E-04,0.39
-6.04E-04,0.37
-6.04E-04,0.37
-6.04E-04,0.37
-6.04E-04,0.35
-6.03E-04,0.39
-6.03E-04,0.37
-6.03E-04,0.37
-6.03E-04,0.39
-6.03E-04,0.39
-6.02E-04,0.37
-6.02E-04,0.39
-6.02E-04,0.37
-6.02E-04,0.37
-6.02E-04,0.37
-6.01E-04,0.37
-6.01E-04,0.37
-6.01E-04,0.37
-6.01E-04,0.29
-6.01E-04,0.35
-6.00E-04,0.37
-6.00E-04,0.39
-6.00E-04,0.37
-6.00E-04,0.37
-6.00E-04,0.37
-5.99E-04,0.37
-5.99E-04,0.39
-5.99E-04,0.35
-5.99E-04,0.37
-5.99E-04,0.37
-5.98E-04,0.39
-5.98E-04,0.39
-5.98E-04,0.37
-5.98E-04,0.37
-5.98E-04,0.35
-5.97E-04,0.35
-5.97E-04,0.35
-5.97E-04,0.37
-5.97E-04,0.39
-5.97E-04,0.39
-5.96E-04,0.39
-5.96E-04,0.37
-5.96E-04,0.37
-5.96E-04,0.37
-5.96E-04,0.37
-5.95E-04,0.41
-5.95E-04,0.37
-5.95E-04,0.39
-5.95E-04,0.39
-5.95E-04,0.37
-5.94E-04,0.37
-5.94E-04,0.37
-5.94E-04,0.35
-5.94E-04,0.37
-5.94E-04,0.37
-5.93E-04,0.37
-5.93E-04,0.35
-5.93E-04,0.37
-5.93E-04,0.39
-5.93E-04,0.37
-5.92E-04,0.39
-5.92E-04,0.39
-5.92E-04,0.37
-5.92E-04,0.39
-5.92E-04,0.37
-5.91E-04,0.37
-5.91E-04,0.39
-5.91E-04,0.35
-5.91E-04,0.35
